…
``` r
#gather data from wide to long format
gathered <- gather(data = df_analgesic ,
                   key = measurements ,
                   value = data, Measurement_1:Measurement_3)

#group by individuals
by_id <- group_by(gathered, ID)
by_id
```

    ## Source: local data frame [120 x 4]
    ## Groups: ID [40]
    ## 
    ##       ID     Group  measurements  data
    ##    <int>     <chr>         <chr> <int>
    ## 1      1 Analgesic Measurement_1    26
    ## 2      2 Analgesic Measurement_1    29
    ## 3      3 Analgesic Measurement_1    24
    ## 4      4 Analgesic Measurement_1    25
    ## 5      5 Analgesic Measurement_1    24
    ## 6      6 Analgesic Measurement_1    22
    ## 7      7 Analgesic Measurement_1    25
    ## 8      8 Analgesic Measurement_1    28
    ## 9      9 Analgesic Measurement_1    22
    ## 10    10 Analgesic Measurement_1    18
    ## # ... with 110 more rows

``` r
#summarise and calculate mean
report <- summarize(by_id, mean(data))
report
```

    ## # A tibble: 40 x 2
    ##       ID mean(data)
    ##    <int>      <dbl>
    ## 1      1   24.33333
    ## 2      2   26.00000
    ## 3      3   24.66667
    ## 4      4   23.66667
    ## 5      5   25.00000
    ## 6      6   23.66667
    ## 7      7   26.66667
    ## 8      8   23.33333
    ## 9      9   22.66667
    ## 10    10   24.00000
    ## # ... with 30 more rows
